[gd_scene load_steps=5 format=2]

[ext_resource path="res://scripts/tmp/hexa_button2d_tmp.gd" type="Script" id=1]
[ext_resource path="res://fonts/GeneraleMonoB.otf" type="DynamicFontData" id=2]


[sub_resource type="DynamicFont" id=1]
size = 30
font_data = ExtResource( 2 )

[sub_resource type="Theme" id=2]
default_font = SubResource( 1 )

[node name="hbutton" type="StaticBody2D"]
position = Vector2( 400, 220 )
input_pickable = true
script = ExtResource( 1 )
radius = 80.0
_text = "PLAY"
test_style = {
"bg": Color( 1, 1, 1, 1 ),
"scale": Vector2( 1, 1 ),
"speed": 10,
"txt": Color( 0, 0, 0, 1 )
}
start_scale = Vector2( 0.05, 0.05 )
normal_speed = 15.0
hover_bg_color = Color( 1, 0, 0.5, 1 )
hover_scale = Vector2( 1.05, 1.05 )
hover_speed = 8.0
disabled_bg_color = Color( 0, 0, 0, 1 )
disabled_txt_color = Color( 0.258824, 0.258824, 0.258824, 1 )
disabled_scale = Vector2( 0.95, 0.95 )
disabled_speed = 20.0

[node name="mesh" type="Polygon2D" parent="."]
polygon = PoolVector2Array( 69.282, 40, 4.89859e-15, 80, -69.282, 40, -69.282, -40, -1.46958e-14, -80, 69.282, -40 )

[node name="coll" type="CollisionPolygon2D" parent="."]
visible = false
polygon = PoolVector2Array( 69.282, 40, 4.89859e-15, 80, -69.282, 40, -69.282, -40, -1.46958e-14, -80, 69.282, -40 )

[node name="txt" type="Label" parent="."]
margin_left = -80.0
margin_top = -12.0
margin_right = 80.0
margin_bottom = 12.0
theme = SubResource( 2 )
custom_colors/font_color = Color( 0, 0, 0, 1 )
text = "PLAY"
align = 1
[connection signal="mouse_entered" from="." to="." method="_on_mouse_entered"]
[connection signal="mouse_exited" from="." to="." method="_on_mouse_exited"]
