<?xml version="1.0" encoding="utf-8"?>
<COLLADA xmlns="http://www.collada.org/2005/11/COLLADASchema" version="1.4.1" xmlns:xsi="http://www.w3.org/2001/XMLSchema-instance">
  <asset>
    <contributor>
      <author>Blender User</author>
      <authoring_tool>Blender 2.80.75 commit date:2019-07-29, commit time:14:47, hash:f6cb5f54494e</authoring_tool>
    </contributor>
    <created>2019-12-30T17:04:20</created>
    <modified>2019-12-30T17:04:20</modified>
    <unit name="meter" meter="1"/>
    <up_axis>Z_UP</up_axis>
  </asset>
  <library_images/>
  <library_geometries>
    <geometry id="Cylinder-mesh" name="Cylinder">
      <mesh>
        <source id="Cylinder-mesh-positions">
          <float_array id="Cylinder-mesh-positions-array" count="144">0 1 -0.5 0 1 0.5 0.2588191 0.9659258 -0.5 0.2588191 0.9659258 0.5 0.5 0.8660254 -0.5 0.5 0.8660254 0.5 0.7071068 0.7071068 -0.5 0.7071068 0.7071068 0.5 0.8660255 0.5 -0.5 0.8660255 0.5 0.5 0.9659258 0.2588191 -0.5 0.9659258 0.2588191 0.5 1 0 -0.5 1 0 0.5 0.9659259 -0.2588189 -0.5 0.9659259 -0.2588189 0.5 0.8660255 -0.4999998 -0.5 0.8660255 -0.4999998 0.5 0.707107 -0.7071066 -0.5 0.707107 -0.7071066 0.5 0.5000002 -0.8660253 -0.5 0.5000002 -0.8660253 0.5 0.2588194 -0.9659258 -0.5 0.2588194 -0.9659258 0.5 3.89414e-7 -1 -0.5 3.89414e-7 -1 0.5 -0.2588186 -0.9659259 -0.5 -0.2588186 -0.9659259 0.5 -0.4999996 -0.8660256 -0.5 -0.4999996 -0.8660256 0.5 -0.7071064 -0.7071072 -0.5 -0.7071064 -0.7071072 0.5 -0.8660252 -0.5000003 -0.5 -0.8660252 -0.5000003 0.5 -0.9659257 -0.2588194 -0.5 -0.9659257 -0.2588194 0.5 -1 -4.64912e-7 -0.5 -1 -4.64912e-7 0.5 -0.9659259 0.2588185 -0.5 -0.9659259 0.2588185 0.5 -0.8660257 0.4999995 -0.5 -0.8660257 0.4999995 0.5 -0.7071073 0.7071064 -0.5 -0.7071073 0.7071064 0.5 -0.5000006 0.8660251 -0.5 -0.5000006 0.8660251 0.5 -0.2588198 0.9659256 -0.5 -0.2588198 0.9659256 0.5</float_array>
          <technique_common>
            <accessor source="#Cylinder-mesh-positions-array" count="48" stride="3">
              <param name="X" type="float"/>
              <param name="Y" type="float"/>
              <param name="Z" type="float"/>
            </accessor>
          </technique_common>
        </source>
        <source id="Cylinder-mesh-normals">
          <float_array id="Cylinder-mesh-normals-array" count="117">0.1305263 0.991445 0 0.3826835 0.9238796 0 0.6087614 0.7933535 0 0.7933532 0.6087617 0 0.9238796 0.3826833 0 0.9914449 0.1305263 0 0.991445 -0.1305258 0 0.9238796 -0.3826833 0 0.7933535 -0.6087612 0 0.6087617 -0.7933532 0 0.3826837 -0.9238795 0 0.1305265 -0.9914449 0 -0.1305258 -0.991445 0 -0.3826831 -0.9238798 0 -0.6087609 -0.7933537 0 -0.7933534 -0.6087616 0 -0.9238795 -0.3826838 0 -0.9914449 -0.1305267 0 -0.991445 0.1305258 0 -0.9238798 0.3826829 0 -0.7933539 0.6087607 0 -0.6087619 0.793353 0 0 0 1 -0.382684 0.9238793 0 -0.1305266 0.9914448 0 0 0 -1 0.6087616 0.7933533 0 0.7933534 0.6087614 0 0.9914449 -0.1305263 0 0.7933533 -0.6087615 0 0.3826838 -0.9238795 0 -0.7933531 -0.6087618 0 -0.7933538 0.608761 0 -0.6087621 0.793353 0 -5.7631e-7 0 1 -5.76311e-7 0 1 0 0 1 -1.68966e-6 0 -1 2.22448e-7 0 -1</float_array>
          <technique_common>
            <accessor source="#Cylinder-mesh-normals-array" count="39" stride="3">
              <param name="X" type="float"/>
              <param name="Y" type="float"/>
              <param name="Z" type="float"/>
            </accessor>
          </technique_common>
        </source>
        <source id="Cylinder-mesh-map-0">
          <float_array id="Cylinder-mesh-map-0-array" count="552">0.5 1 0.6294094 0.9829629 0.5 1 0.6294094 0.9829629 0.7499999 0.9330127 0.6294094 0.9829629 0.7499999 0.9330127 0.8535534 0.8535534 0.7499999 0.9330127 0.8535534 0.8535534 0.9330127 0.7499999 0.8535534 0.8535534 0.9330127 0.7499999 0.9829629 0.6294094 0.9330127 0.7499999 0.9829629 0.6294094 1 0.5 0.9829629 0.6294094 1 0.5 0.9829629 0.3705906 1 0.5 0.9829629 0.3705906 0.9330127 0.2500001 0.9829629 0.3705906 0.9330127 0.2500001 0.8535535 0.1464467 0.9330127 0.2500001 0.8535535 0.1464467 0.7500002 0.06698733 0.8535535 0.1464467 0.7500002 0.06698733 0.6294097 0.01703709 0.7500002 0.06698733 0.6294097 0.01703709 0.5000001 0 0.6294097 0.01703709 0.5000001 0 0.3705906 0.01703703 0.5000001 0 0.3705906 0.01703703 0.2500002 0.06698721 0.3705906 0.01703703 0.2500002 0.06698721 0.1464468 0.1464464 0.2500002 0.06698721 0.1464468 0.1464464 0.06698739 0.2499998 0.1464468 0.1464464 0.06698739 0.2499998 0.01703715 0.3705903 0.06698739 0.2499998 0.01703715 0.3705903 0 0.4999997 0.01703715 0.3705903 0 0.4999997 0.01703703 0.6294092 0 0.4999997 0.01703703 0.6294092 0.06698715 0.7499998 0.01703703 0.6294092 0.06698715 0.7499998 0.1464464 0.8535531 0.06698715 0.7499998 0.1464464 0.8535531 0.2499997 0.9330126 0.1464464 0.8535531 1 0.5 0.7499999 0.9330127 0 0.4999997 0.2499997 0.9330126 0.3705902 0.9829627 0.2499997 0.9330126 0.3705902 0.9829627 0.5 1 0.3705902 0.9829627 0.6294097 0.01703709 0.1464468 0.1464464 0.3705902 0.9829627 0.5 1 0.6294094 0.9829629 0.6294094 0.9829629 0.6294094 0.9829629 0.7499999 0.9330127 0.7499999 0.9330127 0.7499999 0.9330127 0.8535534 0.8535534 0.8535534 0.8535534 0.8535534 0.8535534 0.9330127 0.7499999 0.9330127 0.7499999 0.9330127 0.7499999 0.9829629 0.6294094 0.9829629 0.6294094 0.9829629 0.6294094 1 0.5 1 0.5 1 0.5 0.9829629 0.3705906 0.9829629 0.3705906 0.9829629 0.3705906 0.9330127 0.2500001 0.9330127 0.2500001 0.9330127 0.2500001 0.8535535 0.1464467 0.8535535 0.1464467 0.8535535 0.1464467 0.7500002 0.06698733 0.7500002 0.06698733 0.7500002 0.06698733 0.6294097 0.01703709 0.6294097 0.01703709 0.6294097 0.01703709 0.5000001 0 0.5000001 0 0.5000001 0 0.3705906 0.01703703 0.3705906 0.01703703 0.3705906 0.01703703 0.2500002 0.06698721 0.2500002 0.06698721 0.2500002 0.06698721 0.1464468 0.1464464 0.1464468 0.1464464 0.1464468 0.1464464 0.06698739 0.2499998 0.06698739 0.2499998 0.06698739 0.2499998 0.01703715 0.3705903 0.01703715 0.3705903 0.01703715 0.3705903 0 0.4999997 0 0.4999997 0 0.4999997 0.01703703 0.6294092 0.01703703 0.6294092 0.01703703 0.6294092 0.06698715 0.7499998 0.06698715 0.7499998 0.06698715 0.7499998 0.1464464 0.8535531 0.1464464 0.8535531 0.1464464 0.8535531 0.2499997 0.9330126 0.2499997 0.9330126 0.7499999 0.9330127 0.6294094 0.9829629 0.5 1 0.5 1 0.3705902 0.9829627 0.7499999 0.9330127 0.3705902 0.9829627 0.2499997 0.9330126 0.7499999 0.9330127 0.2499997 0.9330126 0.1464464 0.8535531 0.06698715 0.7499998 0.06698715 0.7499998 0.01703703 0.6294092 0 0.4999997 0 0.4999997 0.01703715 0.3705903 0.2500002 0.06698721 0.01703715 0.3705903 0.06698739 0.2499998 0.2500002 0.06698721 0.06698739 0.2499998 0.1464468 0.1464464 0.2500002 0.06698721 0.2500002 0.06698721 0.3705906 0.01703703 0.5000001 0 0.5000001 0 0.6294097 0.01703709 0.2500002 0.06698721 0.6294097 0.01703709 0.7500002 0.06698733 0.2500002 0.06698721 0.7500002 0.06698733 0.8535535 0.1464467 1 0.5 0.8535535 0.1464467 0.9330127 0.2500001 1 0.5 0.9330127 0.2500001 0.9829629 0.3705906 1 0.5 1 0.5 0.9829629 0.6294094 0.9330127 0.7499999 0.9330127 0.7499999 0.8535534 0.8535534 1 0.5 0.8535534 0.8535534 0.7499999 0.9330127 1 0.5 0.2499997 0.9330126 0.06698715 0.7499998 0 0.4999997 0.7499999 0.9330127 0.2499997 0.9330126 0 0.4999997 0 0.4999997 0.2500002 0.06698721 0.7500002 0.06698733 0.7500002 0.06698733 1 0.5 0 0.4999997 0.2499997 0.9330126 0.3705902 0.9829627 0.3705902 0.9829627 0.3705902 0.9829627 0.5 1 0.5 1 0.3705902 0.9829627 0.5 1 0.8535534 0.8535534 0.5 1 0.6294094 0.9829629 0.8535534 0.8535534 0.6294094 0.9829629 0.7499999 0.9330127 0.8535534 0.8535534 0.8535534 0.8535534 0.9330127 0.7499999 0.9829629 0.6294094 0.9829629 0.6294094 1 0.5 0.9829629 0.3705906 0.9829629 0.3705906 0.9330127 0.2500001 0.8535535 0.1464467 0.8535535 0.1464467 0.7500002 0.06698733 0.6294097 0.01703709 0.6294097 0.01703709 0.5000001 0 0.3705906 0.01703703 0.3705906 0.01703703 0.2500002 0.06698721 0.1464468 0.1464464 0.1464468 0.1464464 0.06698739 0.2499998 0.01703715 0.3705903 0.01703715 0.3705903 0 0.4999997 0.01703703 0.6294092 0.01703703 0.6294092 0.06698715 0.7499998 0.1464464 0.8535531 0.1464464 0.8535531 0.2499997 0.9330126 0.3705902 0.9829627 0.8535534 0.8535534 0.9829629 0.6294094 0.9829629 0.3705906 0.9829629 0.3705906 0.8535535 0.1464467 0.6294097 0.01703709 0.6294097 0.01703709 0.3705906 0.01703703 0.1464468 0.1464464 0.1464468 0.1464464 0.01703715 0.3705903 0.3705902 0.9829627 0.01703715 0.3705903 0.01703703 0.6294092 0.3705902 0.9829627 0.01703703 0.6294092 0.1464464 0.8535531 0.3705902 0.9829627 0.3705902 0.9829627 0.8535534 0.8535534 0.9829629 0.3705906 0.9829629 0.3705906 0.6294097 0.01703709 0.3705902 0.9829627</float_array>
          <technique_common>
            <accessor source="#Cylinder-mesh-map-0-array" count="276" stride="2">
              <param name="S" type="float"/>
              <param name="T" type="float"/>
            </accessor>
          </technique_common>
        </source>
        <vertices id="Cylinder-mesh-vertices">
          <input semantic="POSITION" source="#Cylinder-mesh-positions"/>
        </vertices>
        <triangles count="92">
          <input semantic="VERTEX" source="#Cylinder-mesh-vertices" offset="0"/>
          <input semantic="NORMAL" source="#Cylinder-mesh-normals" offset="1"/>
          <input semantic="TEXCOORD" source="#Cylinder-mesh-map-0" offset="2" set="0"/>
          <p>1 0 0 2 0 1 0 0 2 3 1 3 4 1 4 2 1 5 5 2 6 6 2 7 4 2 8 7 3 9 8 3 10 6 3 11 9 4 12 10 4 13 8 4 14 11 5 15 12 5 16 10 5 17 13 6 18 14 6 19 12 6 20 15 7 21 16 7 22 14 7 23 17 8 24 18 8 25 16 8 26 19 9 27 20 9 28 18 9 29 21 10 30 22 10 31 20 10 32 23 11 33 24 11 34 22 11 35 25 12 36 26 12 37 24 12 38 27 13 39 28 13 40 26 13 41 29 14 42 30 14 43 28 14 44 31 15 45 32 15 46 30 15 47 33 16 48 34 16 49 32 16 50 35 17 51 36 17 52 34 17 53 37 18 54 38 18 55 36 18 56 39 19 57 40 19 58 38 19 59 41 20 60 42 20 61 40 20 62 43 21 63 44 21 64 42 21 65 13 22 66 5 22 67 37 22 68 45 23 69 46 23 70 44 23 71 47 24 72 0 24 73 46 24 74 22 25 75 30 25 76 46 25 77 1 0 78 3 0 79 2 0 80 3 1 81 5 1 82 4 1 83 5 26 84 7 26 85 6 26 86 7 27 87 9 27 88 8 27 89 9 4 90 11 4 91 10 4 92 11 5 93 13 5 94 12 5 95 13 28 96 15 28 97 14 28 98 15 7 99 17 7 100 16 7 101 17 29 102 19 29 103 18 29 104 19 9 105 21 9 106 20 9 107 21 30 108 23 30 109 22 30 110 23 11 111 25 11 112 24 11 113 25 12 114 27 12 115 26 12 116 27 13 117 29 13 118 28 13 119 29 14 120 31 14 121 30 14 122 31 31 123 33 31 124 32 31 125 33 16 126 35 16 127 34 16 128 35 17 129 37 17 130 36 17 131 37 18 132 39 18 133 38 18 134 39 19 135 41 19 136 40 19 137 41 32 138 43 32 139 42 32 140 43 33 141 45 33 142 44 33 143 5 22 144 3 22 145 1 22 146 1 22 147 47 22 148 5 22 149 47 22 150 45 22 151 5 22 152 45 22 153 43 22 154 41 22 155 41 22 156 39 22 157 37 22 158 37 22 159 35 22 160 29 22 161 35 34 162 33 34 163 29 34 164 33 22 165 31 22 166 29 22 167 29 22 168 27 22 169 25 22 170 25 22 171 23 22 172 29 22 173 23 22 174 21 22 175 29 22 176 21 22 177 19 22 178 13 22 179 19 35 180 17 35 181 13 35 182 17 22 183 15 22 184 13 22 185 13 22 186 11 22 187 9 22 188 9 22 189 7 22 190 13 22 191 7 22 192 5 22 193 13 22 194 45 22 195 41 22 196 37 22 197 5 22 198 45 22 199 37 22 200 37 22 201 29 22 202 21 22 203 21 36 204 13 36 205 37 36 206 45 23 207 47 23 208 46 23 209 47 24 210 1 24 211 0 24 212 46 25 213 0 25 214 6 25 215 0 25 216 2 25 217 6 25 218 2 25 219 4 25 220 6 25 221 6 25 222 8 25 223 10 25 224 10 37 225 12 37 226 14 37 227 14 25 228 16 25 229 18 25 230 18 25 231 20 25 232 22 25 233 22 25 234 24 25 235 26 25 236 26 25 237 28 25 238 30 25 239 30 25 240 32 25 241 34 25 242 34 25 243 36 25 244 38 25 245 38 25 246 40 25 247 42 25 248 42 25 249 44 25 250 46 25 251 6 25 252 10 25 253 14 25 254 14 25 255 18 25 256 22 25 257 22 25 258 26 25 259 30 25 260 30 25 261 34 25 262 46 25 263 34 25 264 38 25 265 46 25 266 38 38 267 42 38 268 46 38 269 46 25 270 6 25 271 14 25 272 14 25 273 22 25 274 46 25 275</p>
        </triangles>
      </mesh>
    </geometry>
  </library_geometries>
  <library_visual_scenes>
    <visual_scene id="Scene" name="Scene">
      <node id="Cylinder" name="Cylinder" type="NODE">
        <matrix sid="transform">1 0 0 0 0 1 0 0 0 0 1 0 0 0 0 1</matrix>
        <instance_geometry url="#Cylinder-mesh" name="Cylinder"/>
      </node>
    </visual_scene>
  </library_visual_scenes>
  <scene>
    <instance_visual_scene url="#Scene"/>
  </scene>
</COLLADA>